Lab 02 - What should I major in?
…
Do women tend to choose majors with lower or higher earnings?

In the next section we aim to answer these questions.

Data wrangling and visualization

Which major has the lowest unemployment rate?

In order to answer this question all we need to do is sort the data. We use the arrange function to do this, and sort it by the unemployment_rate variable. By default arrange sorts in ascending order, which is what we want here  were interested in the major with the lowest unemployment rate.

college_recent_grads %>%
  arrange(unemployment_rate)

## # A tibble: 173 x 21
##     rank major_code major major_category total sample_size   men women
##    <int>      <int> <chr> <chr>          <int>       <int> <int> <int>
##  1    53       4005 Math Computers & M   609           7   500   109
##  2    74       3801 Mili Industrial Ar   124           4   124     0
##  3    84       3602 Bota Biology & Lif  1329           9   626   703
##  4   113       1106 Soil Agriculture &   685           4   476   209
##  5   121       2301 Educ Education        804           5   280   524
##  6    15       2409 Engi Engineering     4321          30  3526   795
##  7    20       3201 Cour Law & Public   1148          14   877   271
##  8   120       2305 Math Education      14237         123  3872 10365
##  9     1       2419 Petr Engineering     2339          36  2057   282
## 10    65       1100 Gene Agriculture & 10399         158  6053  4346
## #  with 163 more rows, and 13 more variables: sharewomen <dbl>,
## #   employed <int>, employed_fulltime <int>, employed_parttime <int>,
## #   employed_fulltime_yearround <int>, unemployed <int>,
## #   unemployment_rate <dbl>, p25th <dbl>, median <dbl>, p75th <dbl>,
## #   college_jobs <int>, non_college_jobs <int>, low_wage_jobs <int>

This gives us what we wanted, but not in an ideal form. First, the name of the major barely fits on the page. Second, some of the variables are not that useful (e.g. major_code, major_category) and some we might want front and center are not easily viewed (e.g. unemployment_rate).

We can use the select function to choose which variables to display, and in which order:

Note how easily we expanded our code with adding another step to our pipeline, with the pipe operator: %>%.

college_recent_grads %>%
  arrange(unemployment_rate) %>%
  select(rank, major, unemployment_rate)

## # A tibble: 173 x 3
##     rank major                                      unemployment_rate
##    <int> <chr>                                                  <dbl>
##  1    53 Mathematics And Computer Science                     0      
##  2    74 Military Technologies                                0      
##  3    84 Botany                                               0      
##  4   113 Soil Science                                         0      
##  5   121 Educational Administration And Supervision           0      
##  6    15 Engineering Mechanics Physics And Science            0.00633
##  7    20 Court Reporting                                      0.0117 
##  8   120 Mathematics Teacher Education                        0.0162 
##  9     1 Petroleum Engineering                                0.0184 
## 10    65 General Agriculture                                  0.0196 
## #  with 163 more rows
…
Note that the digits in options is scientific digits, and in round they are decimal places. If youre thinking Wouldnt it be nice if they were consistent?, youre right

You dont need to do both of these, that would be redundant. The next exercise asks you to choose one.

Which of these options, changing the input data or altering the number of digits displayed without touching the input data, is the better option? Explain your reasoning. Then, implement the option you chose.

Answer: Altering the number of digits displayed without touching the input data is the better option becuase it will not chane the original data.

options(pillar.sigfig = 2)
college_recent_grads %>%
  arrange(unemployment_rate) %>%
  select(rank, major, unemployment_rate)

## # A tibble: 173 x 3
##     rank major                                      unemployment_rate
##    <int> <chr>                                                  <dbl>
##  1    53 Mathematics And Computer Science                      0     
##  2    74 Military Technologies                                 0     
##  3    84 Botany                                                0     
##  4   113 Soil Science                                          0     
##  5   121 Educational Administration And Supervision            0     
##  6    15 Engineering Mechanics Physics And Science             0.0063
##  7    20 Court Reporting                                       0.012 
##  8   120 Mathematics Teacher Education                         0.016 
##  9     1 Petroleum Engineering                                 0.018 
## 10    65 General Agriculture                                   0.020 
## #  with 163 more rows

Which major has the highest percentage of women?

To answer such a question we need to arrange the data in descending order. For example, if earlier we were interested in the major with the highest unemployment rate, we would use the following:

The desc function specifies that we want unemployment_rate in descending order.

options(pillar.sigfig = 2) 
college_recent_grads %>%
  arrange(desc(sharewomen)) %>%
  select(rank, major, sharewomen)

## # A tibble: 173 x 3
##     rank major                                         sharewomen
##    <int> <chr>                                              <dbl>
##  1   165 Early Childhood Education                           0.97
##  2   164 Communication Disorders Sciences And Services       0.97
##  3    52 Medical Assisting Services                          0.93
##  4   139 Elementary Education                                0.92
##  5   151 Family And Consumer Sciences                        0.91
##  6   101 Special Needs Education                             0.91
##  7   157 Human Services And Community Organization           0.91
##  8   152 Social Work                                         0.90
##  9    35 Nursing                                             0.90
## 10    89 Miscellaneous Health Medical Professions            0.88
## #  with 163 more rows
…
